<?xml version="1.0" encoding="UTF-8" standalone="no"?>
<svg
   xmlns:osb="http://www.openswatchbook.org/uri/2009/osb"
   xmlns:dc="http://purl.org/dc/elements/1.1/"
   xmlns:cc="http://creativecommons.org/ns#"
   xmlns:rdf="http://www.w3.org/1999/02/22-rdf-syntax-ns#"
   xmlns:svg="http://www.w3.org/2000/svg"
   xmlns="http://www.w3.org/2000/svg"
   xmlns:xlink="http://www.w3.org/1999/xlink"
   xmlns:sodipodi="http://sodipodi.sourceforge.net/DTD/sodipodi-0.dtd"
   xmlns:inkscape="http://www.inkscape.org/namespaces/inkscape"
   inkscape:export-ydpi="512"
   inkscape:export-xdpi="512"
   inkscape:export-filename="/home/jenni/Gitlab/treetment/assets/icon.png"
   width="48"
   height="48"
   viewBox="0 0 12.7 12.7"
   version="1.1"
   id="svg8"
   sodipodi:docname="treetment.inkscape.svg"
   inkscape:version="1.0 (4035a4fb49, 2020-05-01)">
  <title
     id="title893">Treetment App Icon</title>
  <defs
     id="defs2">
    <linearGradient
       id="linearGradient864"
       inkscape:collect="always">
      <stop
         id="stop860"
         offset="0"
         style="stop-color:#7c1d04;stop-opacity:1" />
      <stop
         id="stop862"
         offset="1"
         style="stop-color:#fd3c06;stop-opacity:1" />
    </linearGradient>
    <linearGradient
       id="linearGradient2831"
       inkscape:collect="always">
      <stop
         id="stop2835"
         offset="0"
         style="stop-color:#621c1f;stop-opacity:1" />
      <stop
         id="stop2837"
         offset="1"
         style="stop-color:#982b2f;stop-opacity:1" />
    </linearGradient>
    <linearGradient
       id="linearGradient2821"
       osb:paint="solid">
      <stop
         style="stop-color:#000000;stop-opacity:1;"
         offset="0"
         id="stop2819" />
    </linearGradient>
    <linearGradient
       id="linearGradient2815"
       osb:paint="solid">
      <stop
         style="stop-color:#ff3c03;stop-opacity:1;"
         offset="0"
         id="stop2813" />
    </linearGradient>
    <linearGradient
       inkscape:collect="always"
       xlink:href="#linearGradient2831"
       id="linearGradient2833"
       x1="2.1230483"
       y1="6.8218837"
       x2="9.3266764"
       y2="2.7839766"
       gradientUnits="userSpaceOnUse"
       gradientTransform="matrix(1.1217392,0,0,1.1217392,-0.52475004,-0.80155827)" />
    <linearGradient
       inkscape:collect="always"
       xlink:href="#linearGradient2831"
       id="linearGradient3102"
       gradientUnits="userSpaceOnUse"
       gradientTransform="matrix(1.0683401,0,0,1.0683401,-0.19748551,-1.188316)"
       x1="2.1230483"
       y1="6.8218837"
       x2="9.3266764"
       y2="2.7839766" />
    <linearGradient
       y2="2.5353076"
       x2="10.331881"
       y1="5.9250379"
       x1="3.2578032"
       gradientTransform="translate(-0.05333298,0.38598784)"
       gradientUnits="userSpaceOnUse"
       id="linearGradient920"
       xlink:href="#linearGradient864"
       inkscape:collect="always" />
  </defs>
  <sodipodi:namedview
     id="base"
     pagecolor="#ffd8b1"
     bordercolor="#666666"
     borderopacity="1.0"
     inkscape:pageopacity="0"
     inkscape:pageshadow="2"
     inkscape:zoom="11.313709"
     inkscape:cx="26.405915"
     inkscape:cy="25.652211"
     inkscape:document-units="px"
     inkscape:current-layer="layer1"
     inkscape:document-rotation="0"
     showgrid="false"
     units="px"
     inkscape:window-width="1900"
     inkscape:window-height="1038"
     inkscape:window-x="10"
     inkscape:window-y="32"
     inkscape:window-maximized="1">
    <inkscape:grid
       type="xygrid"
       id="grid10"
       spacingx="0.066145833"
       spacingy="0.066145833" />
  </sodipodi:namedview>
  <metadata
     id="metadata5">
    <rdf:RDF>
      <cc:Work
         rdf:about="">
        <dc:format>image/svg+xml</dc:format>
        <dc:type
           rdf:resource="http://purl.org/dc/dcmitype/StillImage" />
        <dc:title>Treetment App Icon</dc:title>
        <cc:license
           rdf:resource="http://creativecommons.org/licenses/by-nc/4.0/" />
        <dc:date>2020-05-04</dc:date>
        <dc:creator>
          <cc:Agent>
            <dc:title>Jennings Zhang</dc:title>
          </cc:Agent>
        </dc:creator>
      </cc:Work>
      <cc:License
         rdf:about="http://creativecommons.org/licenses/by-nc/4.0/">
        <cc:permits
           rdf:resource="http://creativecommons.org/ns#Reproduction" />
        <cc:permits
           rdf:resource="http://creativecommons.org/ns#Distribution" />
        <cc:requires
           rdf:resource="http://creativecommons.org/ns#Notice" />
        <cc:requires
           rdf:resource="http://creativecommons.org/ns#Attribution" />
        <cc:prohibits
           rdf:resource="http://creativecommons.org/ns#CommercialUse" />
        <cc:permits
           rdf:resource="http://creativecommons.org/ns#DerivativeWorks" />
      </cc:License>
    </rdf:RDF>
  </metadata>
  <g
     sodipodi:insensitive="true"
     style="display:inline"
     inkscape:groupmode="layer"
     id="layer2"
     inkscape:label="Layer 2" />
  <g
     style="display:inline"
     inkscape:label="Layer 1"
     inkscape:groupmode="layer"
     id="layer1">
    <path
       d=""
       id="path18"
       style="opacity:1;fill:url(#linearGradient3102);fill-opacity:1;fill-rule:evenodd;stroke-width:0.282665"
       cx="6.3499999"
       cy="4.9954281"
       r="3.96875" />
    <path
       d=""
       r="3.96875"
       cy="4.9954281"
       cx="6.3499999"
       style="opacity:1;fill:url(#linearGradient3102);fill-opacity:1;fill-rule:evenodd;stroke-width:0.282665"
       id="path3177" />
    <path
       d=""
       r="3.96875"
       cy="4.9954281"
       cx="6.3499999"
       style="opacity:1;fill:url(#linearGradient3102);fill-opacity:1;fill-rule:evenodd;stroke-width:0.282665"
       id="path3181" />
    <path
       d=""
       r="3.96875"
       cy="4.9954281"
       cx="6.3499999"
       style="opacity:1;fill:url(#linearGradient3102);fill-opacity:1;fill-rule:evenodd;stroke-width:0.282665"
       id="path3187" />
    <path
       d="M 6.4464365,1.8308609 A 3.96875,3.96875 0 0 0 2.740203,4.4420709 3.96875,3.96875 0 0 0 3.9184256,8.8397353 L 4.8439505,7.7369602 A 2.5297138,2.5297138 0 0 0 6.469691,8.329172 2.5297138,2.5297138 0 0 0 8.9992524,5.799611 2.5297138,2.5297138 0 0 0 8.8468069,4.9345473 L 10.199179,4.4420709 a 3.96875,3.96875 0 0 0 -3.729488,-2.61121 3.96875,3.96875 0 0 0 -0.023255,0 z m 0.011885,1.9823079 a 1.9860776,1.9860776 0 0 1 5.292e-4,0 1.9860776,1.9860776 0 0 1 0.010853,0 1.9860776,1.9860776 0 0 1 0.3638021,0.03359 1.9860776,1.9860776 0 0 1 0.1777669,0.041858 1.9860776,1.9860776 0 0 1 0.2299602,0.080615 1.9860776,1.9860776 0 0 1 0.2180744,0.1085204 1.9860776,1.9860776 0 0 1 0.05271,0.031006 1.9860776,1.9860776 0 0 1 0.1018026,0.06718 1.9860776,1.9860776 0 0 1 0.097152,0.07338 1.9860776,1.9860776 0 0 1 0.093018,0.079065 1.9860776,1.9860776 0 0 1 0.1700154,0.1741496 1.9860776,1.9860776 0 0 1 0,5.291e-4 1.9860776,1.9860776 0 0 1 0.076481,0.094568 1.9860776,1.9860776 0 0 1 0.036174,0.048576 1.9860776,1.9860776 0 0 1 0,5.291e-4 1.9860776,1.9860776 0 0 1 0.129191,0.2067058 1.9860776,1.9860776 0 0 1 0.054777,0.1085204 1.9860776,1.9860776 0 0 1 0,5.292e-4 1.9860776,1.9860776 0 0 1 0.024805,0.055294 1.9860776,1.9860776 0 0 1 0,5.291e-4 1.9860776,1.9860776 0 0 1 0.040307,0.1023194 A 1.9860776,1.9860776 0 0 1 8.4556292,5.7996604 1.9860776,1.9860776 0 0 1 6.469691,7.7855361 1.9860776,1.9860776 0 0 1 5.1932831,7.3204481 1.9860776,1.9860776 0 0 1 5.1927539,7.3199189 1.9860776,1.9860776 0 0 1 5.1472787,7.280645 1.9860776,1.9860776 0 0 1 5.1023201,7.2393038 1.9860776,1.9860776 0 0 1 4.975713,7.1075289 1.9860776,1.9860776 0 0 1 4.936439,7.0610199 1.9860776,1.9860776 0 0 1 4.90595,7.0232959 1.9860776,1.9860776 0 0 1 4.88993,7.0021079 1.9860776,1.9860776 0 0 1 4.88683,6.9979679 1.9860776,1.9860776 0 0 1 4.855308,6.9550769 1.9860776,1.9860776 0 0 1 4.840322,6.9338889 1.9860776,1.9860776 0 0 1 4.824302,6.9106349 1.9860776,1.9860776 0 0 1 4.798981,6.8718779 1.9860776,1.9860776 0 0 1 4.791231,6.8605089 1.9860776,1.9860776 0 0 1 4.775211,6.8346699 1.9860776,1.9860776 0 0 1 4.75609,6.8031469 1.9860776,1.9860776 0 0 1 4.731285,6.7587059 1.9860776,1.9860776 0 0 1 4.702346,6.7049619 1.9860776,1.9860776 0 0 1 4.675474,6.6501849 1.9860776,1.9860776 0 0 1 4.650153,6.5948909 1.9860776,1.9860776 0 0 1 4.643953,6.5809389 1.9860776,1.9860776 0 0 1 4.630001,6.5468329 1.9860776,1.9860776 0 0 1 4.625351,6.5359799 1.9860776,1.9860776 0 0 1 4.610365,6.4961889 1.9860776,1.9860776 0 0 1 4.601065,6.4718999 1.9860776,1.9860776 0 0 1 4.596415,6.4579479 1.9860776,1.9860776 0 0 1 4.581429,6.4150559 1.9860776,1.9860776 0 0 1 4.566443,6.3659629 1.9860776,1.9860776 0 0 1 4.549907,6.3075689 1.9860776,1.9860776 0 0 1 4.535437,6.2481409 1.9860776,1.9860776 0 0 1 4.523036,6.1918139 a 1.9860776,1.9860776 0 0 1 -0.00103,-0.00465 1.9860776,1.9860776 0 0 1 -0.00775,-0.043408 1.9860776,1.9860776 0 0 1 -0.00362,-0.018603 1.9860776,1.9860776 0 0 1 -0.00827,-0.056844 1.9860776,1.9860776 0 0 1 -0.00206,-0.014986 1.9860776,1.9860776 0 0 1 -0.00206,-0.017052 1.9860776,1.9860776 0 0 1 -0.00414,-0.035657 1.9860776,1.9860776 0 0 1 -0.0031,-0.037207 1.9860776,1.9860776 0 0 1 -0.00206,-0.024805 1.9860776,1.9860776 0 0 1 -0.00103,-0.020153 1.9860776,1.9860776 0 0 1 -0.00259,-0.047542 1.9860776,1.9860776 0 0 1 -0.00156,-0.060462 1.9860776,1.9860776 0 0 1 0,-0.010853 1.9860776,1.9860776 0 0 1 0.00103,-0.060978 1.9860776,1.9860776 0 0 1 0.058394,-0.4216797 1.9860776,1.9860776 0 0 1 0.033073,-0.1173056 1.9860776,1.9860776 0 0 1 0.3431315,-0.6413045 1.9860776,1.9860776 0 0 1 0,-5.292e-4 1.9860776,1.9860776 0 0 1 0.657841,-0.532784 1.9860776,1.9860776 0 0 1 0.1105876,-0.051676 1.9860776,1.9860776 0 0 1 0.649056,-0.1555462 1.9860776,1.9860776 0 0 1 0.1214395,-0.00465 z"
       style="display:inline;fill:url(#linearGradient920);fill-opacity:1;fill-rule:evenodd;stroke-width:0.286401"
       id="circle886" />
    <path
       transform="matrix(0.09903914,0.10741719,-0.29857801,0.1723775,9.7269591,4.0807811)"
       inkscape:transform-center-y="0.011045494"
       inkscape:randomized="0"
       inkscape:rounded="0"
       inkscape:flatsided="true"
       sodipodi:arg2="-0.52359878"
       sodipodi:arg1="-1.5707963"
       sodipodi:r2="1.6154861"
       sodipodi:r1="3.2309721"
       sodipodi:cy="10.946997"
       sodipodi:cx="5.6920061"
       sodipodi:sides="3"
       id="path3104"
       style="display:inline;fill:#985e2b;fill-opacity:1;fill-rule:evenodd;stroke-width:0.264583"
       sodipodi:type="star"
       inkscape:transform-center-x="-0.10261322"
       d="m 5.6920062,7.7160246 2.7981037,4.8464584 -5.5962077,0 z" />
    <path
       sodipodi:type="star"
       style="display:inline;fill:#985e2b;fill-opacity:1;fill-rule:evenodd;stroke-width:0.264583"
       id="path2851"
       sodipodi:sides="3"
       sodipodi:cx="5.6920061"
       sodipodi:cy="10.946997"
       sodipodi:r1="3.2309721"
       sodipodi:r2="1.6154861"
       sodipodi:arg1="-1.5707963"
       sodipodi:arg2="-0.52359878"
       inkscape:flatsided="true"
       inkscape:rounded="0"
       inkscape:randomized="0"
       inkscape:transform-center-y="-0.65984535"
       transform="matrix(0.3685215,-0.21730364,0,1.0745096,4.3720644,-2.0004966)"
       d="m 5.6920062,7.7160246 2.7981037,4.8464584 -5.5962077,0 z" />
    <path
       transform="scale(0.26458333)"
       d="M 24.453125 19.099609 L 20.554688 41.080078 L 24.453125 38.78125 L 24.453125 19.099609 z "
       inkscape:transform-center-y="-0.65984535"
       style="display:inline;fill:#764722;fill-opacity:1;fill-rule:evenodd;stroke-width:0.629269"
       id="path877" />
  </g>
</svg>
